{
  "blogs": [
    {
      "id": "1",
      "title": "Shiba 1",
      "imageUrl": "https://material.angular.io/assets/img/examples/shiba2.jpg",
      "subTitle": "Dog Breed",
      "description": "The Shiba Inu is the smallest of the six original and distinct spitz breeds of dog from Japan. A small, agile dog that copes very well with mountainous terrain, the Shiba Inu was originally bred for hunting.",
      "content": "bcf"
    },
    {
      "id": "2",
      "title": "Shiba 2",
      "imageUrl": "https://material.angular.io/assets/img/examples/shiba2.jpg",
      "subTitle": "Dog Breed",
      "description": "The Shiba Inu is the smallest of the six original and distinct spitz breeds of dog from Japan. A small, agile dog that copes very well with mountainous terrain, the Shiba Inu was originally bred for hunting.",
      "content": "bcf"
    },
    {
      "id": "3",
      "title": "Shiba 3",
      "imageUrl": "https://material.angular.io/assets/img/examples/shiba2.jpg",
      "subTitle": "Dog Breed",
      "description": "The Shiba Inu is the smallest of the six original and distinct spitz breeds of dog from Japan. A small, agile dog that copes very well with mountainous terrain, the Shiba Inu was originally bred for hunting.",
      "content": "bcf"
    },
    {
      "title": "thai",
      "subTitle": "123",
      "description": "123123",
      "imageUrl": "https://i.pinimg.com/originals/55/b9/0f/55b90f7384816fa01276d917061a91b4.jpg",
      "id": "A_dO11s"
    },
    {
      "title": "thai",
      "subTitle": "123",
      "description": "123123",
      "imageUrl": "https://i.pinimg.com/originals/55/b9/0f/55b90f7384816fa01276d917061a91b4.jpg",
      "id": "60tdwn1"
    },
    {
      "title": "thaidep zai",
      "subTitle": "aaaaaaaaaaaaaaaaaaa",
      "description": "123456",
      "imageUrl": "https://i.pinimg.com/originals/55/b9/0f/55b90f7384816fa01276d917061a91b4.jpg",
      "id": "Cdx8dFX"
    },
    {
      "title": "thai",
      "subTitle": "áddd",
      "description": "dep troai",
      "imageUrl": "https://i.pinimg.com/originals/55/b9/0f/55b90f7384816fa01276d917061a91b4.jpg",
      "id": "VJV9-2w"
    }
  ]
}